<?xml version="1.0" encoding="utf-8"?>
<!-- Generator: Adobe Illustrator 18.1.1, SVG Export Plug-In . SVG Version: 6.00 Build 0)  -->
<svg version="1.1" id="Layer_1" xmlns="http://www.w3.org/2000/svg" xmlns:xlink="http://www.w3.org/1999/xlink" x="0px" y="0px"
	 viewBox="0 0 500 15" enable-background="new 0 0 500 15" xml:space="preserve">
<path d="M-0.1,0c3.4,0.3,6.9,0.7,10.3,0.8C105,2.6,199.7,4.3,294.5,6.3c45.4,1,90.8,2.3,136.1,3.9c22,0.8,44,2.5,66,3.8
	c1.1,0.1,2.3,0,3.5-0.1c0-4.7,0-9.3,0-14C333.3,0,166.6,0-0.1,0z"/>
</svg>
