<?xml version="1.0" encoding="utf-8"?>
<!-- Generator: Adobe Illustrator 18.1.1, SVG Export Plug-In . SVG Version: 6.00 Build 0)  -->
<svg version="1.1" id="Layer_1" xmlns="http://www.w3.org/2000/svg" xmlns:xlink="http://www.w3.org/1999/xlink" x="0px" y="0px"
	 viewBox="0 0 50 27" enable-background="new 0 0 50 27" xml:space="preserve">
<g>
	<path fill="#FFFFFF" d="M41.9,0.7c-0.3,0.2-0.5,0.5-0.6,0.7c-0.3,0.3-0.8,1-1,2c0,0.3-0.1,0.3-0.1,0.8c0,0.7-0.2,1.2-0.9,1.5
		c-1,0.4-1.2,1.3-1.3,2.3C38,8,38,8,38,8.1c0,0,0,0,0,0c-0.6,0-1.3,0.1-1.9,0.2c-1.9,0.2-2.4,2.8-1.5,4c0.6,0.7,1.4,1.3,2.1,1.9
		c0,0,0.1,0.1,0.2,0.1c0,0,0,0,0,0.1c-1.4,0.1-2.3,0.9-3,2c-0.3,0.5-0.8,0.8-1.3,1.1c-0.4,0.3-0.8,0.4-1.3,0.7c-1-1-2.1-1.4-3.5-0.8
		c-1.4,0.6-1.5,1.9-1.5,3.2c-0.6-0.2-1.1-0.4-1.6-0.6c-0.6-0.2-1.2-0.1-1.7,0.2c-0.3,0.2-0.4,0.1-0.6,0c-1.1-0.7-1.4-0.7-2.5,0.1
		c-0.2,0.1-0.4,0.3-0.5,0.4c-0.3-0.1-0.5-0.3-0.8-0.4c-0.9-0.4-1.6,0-1.9,1c-0.1,0.5-0.3,1-0.6,1.4c-0.4,0.7-1.2,0.7-1.9,0.7
		c-1.3,0.1-2.5,0.1-3.8,0.1c-0.1,0-0.3,0-0.4,0.1c-0.5,0.5-1.2,0.5-1.8,0.7c-0.8,0.2-1.6,0.4-2.3,0.7c-1.4,0.6-2.8,1-4.3,1.3
		c-0.6,0.1-1.2,0.3-1.8,0.5c0,0.1,0.1,0.2,0.1,0.2c0.1,0,0.2,0,0.4,0c16.6,0,33.2,0,49.8,0c0-8.4,0-16.9,0-25.3
		c-0.7,0-1.4,0-2.2-0.1c-0.2,0-0.5-0.1-0.9-0.2c-0.5-0.1-1.2-0.4-2.1-1.1c-0.2-0.1-0.6-0.3-1-0.3C42.9-0.1,42.1,0.6,41.9,0.7z"/>
</g>
</svg>
