<?xml version="1.0" encoding="utf-8"?>
<!-- Generator: Adobe Illustrator 18.1.1, SVG Export Plug-In . SVG Version: 6.00 Build 0)  -->
<svg version="1.1" id="Layer_1" xmlns="http://www.w3.org/2000/svg" xmlns:xlink="http://www.w3.org/1999/xlink" x="0px" y="0px"
	 viewBox="0 0 100 35" enable-background="new 0 0 100 35" xml:space="preserve">
<g>
</g>
<g>
	<path fill="#FFFFFF" d="M95.9,0c1.4,0,2.9,0,4.3,0c0,4.7,0,9.5,0,14.2c0,0-0.1,0-0.1,0c-4.2,1.9-8.4,3.9-12.6,5.8
		c-10.3,4.8-20.6,9.5-31,14.3c-0.6,0.3-1.2,0.6-1.8,0.9c-3.2,0-6.3,0-9.5,0C45.1,35.1,45,35,44.9,35C32.3,29.2,19.8,23.4,7.2,17.6
		c-2.5-1.1-4.9-2.3-7.4-3.4c0-4.7,0-9.5,0-14.2c1.4,0,2.9,0,4.3,0c0.1,0.1,0.1,0.2,0.2,0.2C6.1,1.6,7.8,3,9.6,4.4
		c5.5,4.5,11.1,8.9,16.6,13.4c6.5,5.2,13,10.4,19.5,15.6c0.2,0.2,0.5,0.4,0.7,0.6c0-0.1-0.1-0.2-0.1-0.3c-0.8-0.9-1.6-1.8-2.4-2.8
		C39.9,26.4,35.9,22,32,17.5c-4.6-5.3-9.3-10.6-13.9-15.9c-0.5-0.5-0.9-1.1-1.4-1.6c7,0,14,0,21,0c3.6,11.4,7.2,22.7,10.9,34.1
		c0,0,0.1,0,0.1,0c0-0.2,0-0.4-0.1-0.5c-0.3-2-0.5-4.1-0.8-6.1c-0.3-2.2-0.6-4.4-0.9-6.7c-0.3-2.1-0.5-4.1-0.8-6.2
		c-0.3-2-0.5-4.1-0.8-6.1c-0.2-1.9-0.5-3.8-0.7-5.6c-0.1-1-0.2-1.9-0.3-2.9c3.8,0,7.6,0,11.4,0c0,0.2,0,0.3,0,0.5
		c-0.5,3.9-1,7.8-1.5,11.7c-0.5,3.6-0.9,7.1-1.4,10.7c-0.4,3.3-0.9,6.6-1.3,9.9c-0.1,0.4-0.1,0.8-0.2,1.3c0,0,0.1,0,0.1,0
		C55,22.7,58.7,11.4,62.3,0c7,0,14,0,21,0c-0.4,0.5-0.9,1.1-1.3,1.6c-5.3,6-10.5,12-15.8,17.9c-4.1,4.7-8.3,9.4-12.4,14.2
		c-0.1,0.1-0.1,0.1-0.2,0.2c0.1,0,0.2-0.1,0.3-0.2c6.5-5.2,13-10.4,19.5-15.6c7.1-5.7,14.2-11.4,21.2-17.1C95,0.7,95.4,0.4,95.9,0z"
		/>
</g>
</svg>
